<?xml version="1.0" encoding="utf-8"?>
<!-- Generator: Adobe Illustrator 23.0.1, SVG Export Plug-In . SVG Version: 6.00 Build 0)  -->
<svg version="1.1" id="Livello_1" xmlns="http://www.w3.org/2000/svg" xmlns:xlink="http://www.w3.org/1999/xlink" x="0px" y="0px"
	 viewBox="0 0 1920 1080" style="enable-background:new 0 0 1920 1080;" xml:space="preserve">
<style type="text/css">
	.st0{fill:#47748D;}
</style>
<path id="Bg_Shape_3_" class="st0" d="M-90,1080c0,0,0-68.5,0-199.2c27.6-82.6,203-134.9,446.7-38.7
	c456.4,180.3,497.5-222.5,885.9-73.8C1755.2,964.5,1980,789.9,1980,1080"/>
<path id="Bg_Shape_2_" class="st0" d="M118.3,589.9"/>
</svg>
